{
  "request": {
    "method": "GET",
    "url": "/rest/api/1.0/projects/PRJ2/repos?start=0",
    "headers": {
      "Authorization": {
        "equalTo": "Bearer PERSONAL_ACCESS_TOKEN"
      }
    }
  },
  "response": {
    "status": 200,
    "headers": {
      "Content-Type": "application/json"
    },
    "jsonBody": {
      "size": 1,
      "limit": 25,
      "isLastPage": true,
      "values": [
        {
          "slug": "boring-repo",
          "id": 1,
          "name": "Boring repo",
          "scmId": "git",
          "state": "AVAILABLE",
          "statusMessage": "Available",
          "forkable": true,
          "project": {
            "key": "PRJ2",
            "id": 2,
            "name": "My Boring Project",
            "description": "The description for my boring project.",
            "public": true,
            "type": "NORMAL",
            "links": {
              "self": [
                {
                  "href": "http://link/to/project"
                }
              ]
            }
          },
          "public": true,
          "links": {
            "clone": [
              {
                "href": "ssh://git@<baseURL>/PRJ2/boring-repo.git",
                "name": "ssh"
              },
              {
                "href": "https://<baseURL>/scm/PRJ2/boring-repo.git",
                "name": "http"
              }
            ],
            "self": [
              {
                "href": "http://link/to/repository"
              }
            ]
          }
        }
      ],
      "start": 0
    }
  }
}